<svg width="1048" height="137" viewBox="0 0 1048 137" fill="none" xmlns="http://www.w3.org/2000/svg">
<rect x="13" y="13" width="140" height="124" fill="black"/>
<rect x="180" y="13" width="140" height="124" fill="black"/>
<rect x="347" y="13" width="140" height="124" fill="black"/>
<rect x="554" y="13" width="140" height="124" fill="black"/>
<rect x="721" y="13" width="140" height="124" fill="black"/>
<rect x="908" y="13" width="140" height="124" fill="black"/>
<rect x="1.5" y="1.5" width="143" height="127" fill="#006B54"/>
<path d="M103.192 30.0078C102.712 30.0078 102.424 30.1998 102.232 30.5838L96.28 48.4398C96.184 48.8238 95.608 48.8238 95.512 48.4398L89.848 30.5838C89.752 30.1998 89.464 30.0078 88.984 30.0078H57.112C56.632 30.0078 56.248 30.1998 56.152 30.5838L50.392 48.4398C50.2 48.8238 49.816 48.8238 49.624 48.4398L43.768 30.5838C43.672 30.1998 43.384 30.0078 42.904 30.0078H11.32C10.552 30.0078 10.168 30.4878 10.456 31.2558L33.976 99.4158C34.168 99.7998 34.456 99.9918 34.936 99.9918H65.272C65.752 99.9918 66.04 99.7998 66.232 99.4158L72.568 81.2718C72.76 80.6958 72.856 80.5998 73.048 80.5998C73.24 80.5998 73.336 80.6958 73.528 81.2718L79.768 99.4158C79.864 99.7998 80.248 99.9918 80.632 99.9918H111.064C111.544 99.9918 111.832 99.7998 112.024 99.4158L135.544 31.2558C135.832 30.4878 135.448 30.0078 134.68 30.0078H103.192Z" fill="white"/>
<rect x="1.5" y="1.5" width="143" height="127" stroke="black" stroke-width="3"/>
<rect x="168.5" y="1.5" width="143" height="127" fill="#006B54"/>
<path d="M275.664 30.9678C275.664 30.4878 275.28 30.0078 274.8 30.0078H243.024C242.544 30.0078 242.064 30.4878 242.064 30.9678V55.0638H237.936V30.9678C237.936 30.4878 237.552 30.0078 236.976 30.0078H205.2C204.72 30.0078 204.336 30.4878 204.336 30.9678V99.0318C204.336 99.6078 204.72 99.9918 205.2 99.9918H236.976C237.552 99.9918 237.936 99.6078 237.936 99.0318V76.5678H242.064V99.0318C242.064 99.6078 242.544 99.9918 243.024 99.9918H274.8C275.28 99.9918 275.664 99.6078 275.664 99.0318V30.9678Z" fill="white"/>
<rect x="168.5" y="1.5" width="143" height="127" stroke="black" stroke-width="3"/>
<rect x="335.5" y="1.5" width="143" height="127" fill="#006B54"/>
<path d="M422.36 99.9918C422.84 99.9918 423.32 99.6078 423.32 99.1278V74.7438L447.8 31.4478C448.28 30.7758 448.088 30.0078 447.128 30.0078H413.816C413.528 30.0078 413.24 30.1038 413.048 30.3918L407.48 40.6638C407.288 41.0478 407.192 41.2398 407 41.2398C406.808 41.2398 406.712 41.0478 406.52 40.6638L400.952 30.3918C400.76 30.1038 400.472 30.0078 400.184 30.0078H366.872C365.912 30.0078 365.72 30.7758 366.2 31.4478L390.68 74.7438V99.1278C390.68 99.6078 391.16 99.9918 391.64 99.9918H422.36Z" fill="white"/>
<rect x="335.5" y="1.5" width="143" height="127" stroke="black" stroke-width="3"/>
<rect x="542.5" y="1.5" width="143" height="127" fill="#006B54"/>
<path d="M613.5 67.1598C612.156 67.1598 611.004 66.1038 611.004 64.6638V30.9678C611.004 30.3918 610.62 30.0078 610.14 30.0078H578.844C578.268 30.0078 577.884 30.3918 577.884 30.9678V65.2398C577.884 84.5358 594.012 99.9918 613.5 99.9918C632.988 99.9918 649.116 84.5358 649.116 65.2398V30.9678C649.116 30.3918 648.732 30.0078 648.156 30.0078H616.86C616.38 30.0078 615.996 30.3918 615.996 30.9678V64.6638C615.996 66.1038 614.844 67.1598 613.5 67.1598Z" fill="white"/>
<rect x="542.5" y="1.5" width="143" height="127" stroke="black" stroke-width="3"/>
<rect x="709.5" y="1.5" width="143" height="127" fill="#006B54"/>
<path d="M779.176 77.4318C779.176 76.8558 778.696 76.3758 778.024 76.3758H746.248C745.576 76.3758 745.096 76.8558 745.096 77.4318C745.096 92.1198 761.704 99.9918 780.712 99.9918C804.712 99.9918 817.384 91.4478 817.384 77.7198C817.384 63.0318 804.712 54.2958 780.616 54.2958C778.12 54.2958 777.928 52.5678 777.928 51.8958C777.928 50.6478 779.176 49.5918 780.712 49.5918C782.152 49.5918 783.4 50.4558 783.4 51.7998C783.4 52.6638 783.976 53.1438 784.744 53.1438H815.56C816.232 53.1438 816.712 52.6638 816.712 52.0878C816.712 37.6878 800.008 30.0078 781.192 30.0078C762.28 30.0078 744.616 39.6078 744.616 53.1438C744.616 67.9278 759.496 74.8398 780.904 74.9358C783.112 74.9358 784.552 75.9918 784.552 77.7198C784.552 78.9678 783.4 80.0238 781.96 80.0238C780.232 80.0238 779.176 79.1598 779.176 77.4318Z" fill="white"/>
<rect x="709.5" y="1.5" width="143" height="127" stroke="black" stroke-width="3"/>
<rect x="896.5" y="1.5" width="143" height="127" fill="#006B54"/>
<path d="M985.488 62.5518C989.712 59.2878 992.496 55.1598 992.496 48.2478C992.496 36.1518 981.648 30.0078 968.208 30.0078C954.48 30.0078 946.512 35.2878 942.672 45.7518C942.384 46.5198 942.48 46.8078 942.864 46.9998L959.184 54.4878C960.24 54.9678 960.528 54.9678 960.72 53.9118C961.2 51.7998 962.256 49.7838 964.368 49.7838C966.288 49.7838 966.96 50.9358 966.96 52.3758C966.96 54.4878 965.04 56.8878 963.12 59.0958C958.8 64.1838 957.936 69.1758 958.224 73.7838C958.32 74.7438 958.416 74.7438 959.184 74.7438H978.096C978.768 74.7438 978.864 74.4558 978.864 73.5918C978.864 70.1358 980.4 66.6798 985.488 62.5518ZM967.92 79.0638C962.16 79.0638 957.456 83.6718 957.456 89.4318C957.456 95.3838 962.16 99.9918 967.92 99.9918C973.776 99.9918 978.576 95.3838 978.576 89.4318C978.576 83.6718 973.776 79.0638 967.92 79.0638Z" fill="white"/>
<rect x="896.5" y="1.5" width="143" height="127" stroke="black" stroke-width="3"/>
</svg>
